module gitlab.com/0xmohit/cockroach-go/v2

go 1.19

require (
	github.com/gofrs/flock v0.8.1
	github.com/jackc/pgx/v4 v4.18.3
	github.com/jackc/pgx/v5 v5.5.2
	github.com/jmoiron/sqlx v1.3.5
	github.com/lib/pq v1.10.6
	github.com/stretchr/testify v1.8.1
	gopkg.in/yaml.v3 v3.0.1
	gorm.io/driver/postgres v1.3.5
	gorm.io/gorm v1.23.5
)

require (
	github.com/davecgh/go-spew v1.1.1 // indirect
	github.com/jackc/chunkreader/v2 v2.0.1 // indirect
	github.com/jackc/pgconn v1.14.3 // indirect
	github.com/jackc/pgio v1.0.0 // indirect
	github.com/jackc/pgpassfile v1.0.0 // indirect
	github.com/jackc/pgproto3/v2 v2.3.3 // indirect
	github.com/jackc/pgservicefile v0.0.0-20231201235250-de7065d80cb9 // indirect
	github.com/jackc/pgtype v1.14.3 // indirect
	github.com/jackc/puddle v1.3.0 // indirect
	github.com/jackc/puddle/v2 v2.2.1 // indirect
	github.com/jinzhu/inflection v1.0.0 // indirect
	github.com/jinzhu/now v1.1.4 // indirect
	github.com/pmezard/go-difflib v1.0.0 // indirect
	github.com/rogpeppe/go-internal v1.9.0 // indirect
	golang.org/x/crypto v0.22.0 // indirect
	golang.org/x/sync v0.7.0 // indirect
	golang.org/x/sys v0.19.0 // indirect
	golang.org/x/text v0.14.0 // indirect
)
